<svg width="64" height="64" viewBox="0 0 64 64" fill="none" xmlns="http://www.w3.org/2000/svg">
<g id="F_icon">
<path id="Blue_1_" d="M60.3137 63.8288C62.2545 63.8288 63.8283 62.255 63.8283 60.3137V3.66014C63.8283 1.71864 62.2547 0.145325 60.3137 0.145325H3.6601C1.71861 0.145325 0.145294 1.71864 0.145294 3.66014V60.3137C0.145294 62.2547 1.71836 63.8288 3.6601 63.8288H60.3137Z" fill="#3C5A99"/>
<path id="f" d="M44.0856 63.8288V39.167H52.3634L53.6028 29.5559H44.0856V23.4198C44.0856 20.6372 44.8583 18.7409 48.8486 18.7409L53.9379 18.7387V10.1424C53.0577 10.0253 50.0366 9.76361 46.5218 9.76361C39.1841 9.76361 34.1604 14.2426 34.1604 22.468V29.5559H25.8614V39.167H34.1604V63.8288H44.0856Z" fill="white"/>
</g>
</svg>
