<svg width="64" height="64" viewBox="0 0 64 64" fill="none" xmlns="http://www.w3.org/2000/svg">
<g id="Twitter_bird_logo_2012">
<path id="Path" d="M31.821 0C23.181 0 22.0963 0.0379661 18.701 0.195254C16.0616 0.246344 13.45 0.745183 10.9776 1.67051C8.85454 2.4701 6.93142 3.72319 5.34237 5.34237C3.72319 6.93142 2.4701 8.85454 1.67051 10.9776C0.745183 13.45 0.246344 16.0616 0.195254 18.701C0.0379661 22.0963 0 23.181 0 31.821C0 40.461 0.0379661 41.5458 0.195254 44.941C0.246344 47.5804 0.745183 50.192 1.67051 52.6644C2.4701 54.7875 3.72319 56.7106 5.34237 58.2997C6.93142 59.9188 8.85454 61.1719 10.9776 61.9715C13.45 62.8969 16.0616 63.3957 18.701 63.4468C22.0963 63.6041 23.181 63.642 31.821 63.642C40.461 63.642 41.5458 63.6041 44.941 63.4468C47.5804 63.3957 50.192 62.8969 52.6644 61.9715C56.9391 60.3184 60.3184 56.9391 61.9715 52.6644C62.8969 50.192 63.3957 47.5804 63.4468 44.941C63.6041 41.5458 63.642 40.461 63.642 31.821C63.642 23.181 63.6041 22.0963 63.4468 18.701C63.3957 16.0616 62.8969 13.45 61.9715 10.9776C61.1719 8.85454 59.9188 6.93142 58.2997 5.34237C56.7106 3.72319 54.7875 2.4701 52.6644 1.67051C50.192 0.745183 47.5804 0.246344 44.941 0.195254C41.5458 0.0379661 40.461 0 31.821 0Z" fill="#41ABE1"/>
<path id="Path_2" fill-rule="evenodd" clip-rule="evenodd" d="M51.5767 19.7121C50.1551 20.3394 48.63 20.7653 47.0301 20.9552C48.6646 19.9768 49.9192 18.4229 50.5062 16.5755C48.9753 17.4848 47.2833 18.1409 45.482 18.4977C44.0374 16.9611 41.9828 16 39.7038 16C35.3357 16 31.7905 19.5452 31.7905 23.9133C31.7905 24.5349 31.8596 25.1392 31.9977 25.7147C25.4196 25.3866 19.5896 22.2328 15.6876 17.4445C15.0085 18.6128 14.6172 19.971 14.6172 21.4213C14.6172 24.1665 16.0157 26.5894 18.1393 28.0052C16.8444 27.9649 15.6243 27.6081 14.5539 27.0153C14.5539 27.0499 14.5539 27.0786 14.5539 27.1132C14.5539 30.9461 17.2818 34.1459 20.9018 34.8711C20.24 35.0495 19.5378 35.1473 18.8184 35.1473C18.3062 35.1473 17.8113 35.0955 17.3279 35.0035C18.335 38.1458 21.2586 40.4363 24.7175 40.4996C22.0068 42.6232 18.5997 43.8894 14.8877 43.8894C14.2489 43.8894 13.6216 43.8491 13 43.78C16.4991 46.0245 20.6601 47.3367 25.1318 47.3367C39.6866 47.3367 47.6459 35.2797 47.6459 24.8226C47.6459 24.4773 47.6401 24.1378 47.6229 23.7982C49.171 22.6817 50.512 21.289 51.5709 19.7006L51.5767 19.7121Z" fill="white"/>
</g>
</svg>
